{
        "password": "Put_value_here",
        "invitation_request": "Put_value_here",
        "USELESS_INPUT_modified_packet": "Put_value_here",
        "recipient": "Put_value_here",
        "failure_message": "Put_Regular_Expression_Pattern_here",
        "message": "Put_value_here",
        "USELESS_INPUT_packets": "Put_value_here",
        "email": "Put_value_here",
        "username": "Put_value_here"
     }
